<?xml version="1.0" encoding="utf-8"?>
<!-- Generator: Adobe Illustrator 16.0.0, SVG Export Plug-In . SVG Version: 6.00 Build 0)  -->
<!DOCTYPE svg PUBLIC "-//W3C//DTD SVG 1.1//EN" "http://www.w3.org/Graphics/SVG/1.1/DTD/svg11.dtd">
<svg version="1.1" id="Layer_1" xmlns="http://www.w3.org/2000/svg" xmlns:xlink="http://www.w3.org/1999/xlink" x="0px" y="0px"
	 width="512px" height="512px" viewBox="0 0 512 512" enable-background="new 0 0 512 512" xml:space="preserve">
<path fill="#EE3F6D" d="M276.713,283.404"/>
<g>
	<g>
		<g>
			<path fill="#FFDF2D" d="M378.619,405.766h-22.021c0.535,3.807,0.814,7.688,0.814,11.627c0,3.422-0.207,6.822-0.619,10.188
				c0.582-0.063,1.174-0.1,1.773-0.1c4.992,0,9.461,2.281,12.42,5.855c1.971-2.383,4.613-4.189,7.633-5.131V405.766z"/>
		</g>
		<path fill="#F5A86D" d="M270.955,306.512c5.1,0,9.865,2.752,12.434,7.184l0.584,1.008l0.586-1.008
			c2.568-4.432,7.334-7.184,12.434-7.184s9.863,2.752,12.434,7.184l0.584,1.008l0.584-1.008c2.57-4.432,7.334-7.184,12.434-7.184
			s9.865,2.752,12.434,7.184l0.584,1.008l0.586-1.008c2.568-4.432,7.334-7.184,12.434-7.184s9.863,2.752,12.434,7.184l0.584,1.008
			l0.584-1.008c2.57-4.432,7.334-7.184,12.434-7.184s9.865,2.752,12.434,7.184l0.584,1.008l0.586-1.008
			c2.568-4.432,7.334-7.184,12.432-7.184c5.1,0,9.865,2.752,12.434,7.184l0.586,1.006l0.584-1.006
			c2.57-4.432,7.334-7.184,12.434-7.184c0.098,0,0.191,0.012,0.287,0.014C415.48,281.672,384.902,264,349.061,264
			c-35.84,0-66.418,17.674-78.398,42.525C270.764,306.523,270.857,306.512,270.955,306.512L270.955,306.512z"/>
		<path fill="#E99A58" d="M270.955,306.512c5.1,0,9.865,2.752,12.434,7.184l0.584,1.008l0.586-1.008
			c2.568-4.432,7.334-7.184,12.434-7.184c1.305,0,2.588,0.182,3.818,0.525c10.107-21.51,34.1-37.738,63.445-41.959
			c-4.928-0.707-10.002-1.078-15.189-1.078c-35.842,0-66.42,17.674-78.398,42.525C270.764,306.523,270.857,306.512,270.955,306.512
			L270.955,306.512z"/>
		<g>
			<g>
				<path fill="#FBBC85" d="M329.643,286.656c-2.799,0-5.068-2.27-5.068-5.068v-16.547c0-2.799,2.27-5.068,5.068-5.068
					s5.068,2.27,5.068,5.068v16.547C334.711,284.387,332.441,286.656,329.643,286.656z"/>
			</g>
			<g>
				<path fill="#FBBC85" d="M349.066,286.656c-2.799,0-5.068-2.27-5.068-5.068v-16.547c0-2.799,2.27-5.068,5.068-5.068
					s5.068,2.27,5.068,5.068v16.547C354.135,284.387,351.865,286.656,349.066,286.656z"/>
			</g>
			<g>
				<path fill="#FBBC85" d="M368.49,286.656c-2.799,0-5.068-2.27-5.068-5.068v-16.547c0-2.799,2.27-5.068,5.068-5.068
					c2.801,0,5.068,2.27,5.068,5.068v16.547C373.559,284.387,371.291,286.656,368.49,286.656z"/>
			</g>
		</g>
		<g>
			<path fill="#7CA0B0" d="M427.178,335.266c-5.1,0-9.865-2.752-12.434-7.184l-0.584-1.008l-0.586,1.008
				c-2.57,4.43-7.334,7.184-12.434,7.184c-5.098,0-9.863-2.754-12.434-7.184l-0.584-1.01l-0.584,1.01
				c-2.57,4.43-7.334,7.184-12.434,7.184s-9.865-2.754-12.434-7.184l-0.584-1.01l-0.586,1.01c-2.568,4.43-7.334,7.184-12.434,7.184
				s-9.863-2.754-12.432-7.184l-0.586-1.01l-0.588,1.01c-2.568,4.432-7.334,7.184-12.434,7.184c-5.098,0-9.863-2.752-12.434-7.184
				l-0.584-1.008l-0.584,1.008c-1.895,3.268-4.928,5.629-8.541,6.646l-1.859,0.523l1.781,0.75
				c13.725,5.771,25.984,14.609,35.457,25.561l0.201,0.234h78.703l12.857-26.574C427.744,335.238,427.465,335.266,427.178,335.266
				L427.178,335.266z"/>
		</g>
		<path fill="#FDD2A3" d="M427.176,305.836c-5.564,0-10.414,3.029-13.018,7.52c-2.605-4.49-7.453-7.52-13.02-7.52
			c-5.564,0-10.412,3.029-13.018,7.52c-2.605-4.49-7.453-7.52-13.02-7.52s-10.414,3.029-13.018,7.52
			c-2.605-4.49-7.453-7.52-13.02-7.52c-5.564,0-10.414,3.029-13.018,7.52c-2.605-4.49-7.453-7.52-13.02-7.52
			s-10.414,3.029-13.02,7.52c-2.605-4.49-7.453-7.52-13.018-7.52c-5.566,0-10.414,3.029-13.02,7.52
			c-2.604-4.49-7.451-7.52-13.018-7.52c-8.314,0-15.053,6.74-15.053,15.053c0,2.615,0.667,5.074,1.84,7.217
			c1.084-0.033,2.17-0.051,3.26-0.051c13.832,0,26.99,2.719,38.893,7.602c4.32-0.848,7.975-3.547,10.115-7.234
			c2.605,4.49,7.451,7.52,13.018,7.52s10.414-3.029,13.02-7.52c2.604,4.49,7.451,7.52,13.018,7.52s10.414-3.029,13.02-7.52
			c2.605,4.49,7.453,7.52,13.02,7.52c5.564,0,10.412-3.029,13.018-7.52c2.605,4.49,7.453,7.52,13.02,7.52
			c5.564,0,10.414-3.029,13.018-7.52c2.605,4.49,7.453,7.52,13.02,7.52c8.313,0,15.053-6.74,15.053-15.053
			S435.49,305.836,427.176,305.836z"/>
		<path fill="#E6B721" d="M349.895,382.746l0.416,0.947c3.223,7.324,5.357,14.941,6.385,22.748h32.715
			c5.961,0,10.791-4.83,10.791-10.789v-12.906H349.895z"/>
		<path fill="#FFDF2D" d="M438.633,361.121H335.824c5.881,6.701,10.734,14.203,14.342,22.301h88.467
			c1.986,0,3.596-1.609,3.596-3.598v-15.107C442.229,362.73,440.619,361.121,438.633,361.121z"/>
	</g>
	<g>
		<g>
			<g>
				<path fill="#FBBC85" d="M154.463,357.855h-23.525c-0.503-6.063-5.576-10.83-11.77-10.83c-6.527,0-11.82,5.293-11.82,11.82
					c0,2.822,0.993,5.412,2.644,7.443c4.877,0.867,8.756,4.961,9.177,10.035l0.052,0.619h24.146v-1.096
					c0-0.818,0.666-1.484,1.483-1.484h9.612v-16.508H154.463z"/>
			</g>
			<path fill="#F37721" d="M176.537,374.363c4.16-6.984,9.299-13.398,15.245-19.086h-35.836c-1.191,0-2.158,0.967-2.158,2.158
				v16.928H176.537z"/>
		</g>
		<path fill="#E0E336" d="M422.256,450.053c0.191-0.186,0.393-0.357,0.58-0.547c8.902-8.902,12.533-21.074,10.906-32.65
			c-0.129-0.912-0.842-1.625-1.754-1.752c-11.576-1.629-23.748,2.002-32.65,10.904c-6.709,6.709-10.42,15.275-11.146,24.045H422.256
			z"/>
		<path fill="#B7BE34" d="M405.959,450.053l13.139-13.139c1.979-1.98,1.979-5.189,0-7.166c-1.98-1.98-5.189-1.98-7.168,0
			l-20.305,20.305H405.959z"/>
		<g>
			<path fill="#EF4B58" d="M398.916,450.053c0.828-1.986,1.285-4.166,1.285-6.451c0-9.275-7.52-16.797-16.795-16.797
				c-9.277,0-16.799,7.521-16.799,16.797c0,2.285,0.459,4.465,1.287,6.451H398.916z"/>
			<g>
				<path fill="#EF4B58" d="M155.039,450.053c0.826-1.986,1.285-4.166,1.285-6.451c0-9.275-7.521-16.797-16.797-16.797
					c-9.277,0-16.797,7.521-16.797,16.797c0,2.285,0.458,4.465,1.285,6.451H155.039z"/>
				<path fill="#F7963B" d="M261.004,327.379c-36.809,0-68.832,18.994-85.294,46.984h57.658c15.289,0,27.728,12.439,27.728,27.729
					c0,15.303-12.419,27.752-27.685,27.752c-3.023,0-6.038-0.504-8.959-1.496l-60.006-20.377c-0.347,3.098-0.528,6.238-0.528,9.42
					c0,11.523,2.347,22.535,6.604,32.66h180.964c4.256-10.125,6.604-21.137,6.604-32.66
					C358.088,367.68,314.623,327.379,261.004,327.379z"/>
				<g>
					<path fill="#F5851F" d="M212.521,373.688c13.753-22.91,37.981-39.674,66.686-44.723c-5.896-1.037-11.98-1.586-18.203-1.586
						c-36.511,0-68.309,18.689-84.887,46.309H212.521z"/>
					<path fill="#F5851F" d="M164.375,408.66c-0.299,2.873-0.457,5.785-0.457,8.73c0,11.523,2.347,22.535,6.604,32.66h36.406
						c-3.823-9.094-6.099-18.904-6.524-29.156L164.375,408.66z"/>
				</g>
				<path fill="#EF4B58" d="M345.461,450.053c0.828-1.986,1.285-4.166,1.285-6.451c0-9.275-7.52-16.797-16.797-16.797
					c-9.275,0-16.795,7.521-16.795,16.797c0,2.285,0.457,4.465,1.283,6.451H345.461z"/>
				<path fill="#E3232E" d="M374.078,450.053c0.826-1.986,1.285-4.166,1.285-6.451c0-9.275-7.52-16.797-16.797-16.797
					c-9.275,0-16.797,7.521-16.797,16.797c0,2.285,0.459,4.465,1.285,6.451H374.078z"/>
				<path fill="#E3232E" d="M179.499,450.053c0.826-1.986,1.284-4.166,1.284-6.451c0-9.275-7.521-16.797-16.796-16.797
					c-9.277,0-16.797,7.521-16.797,16.797c0,2.285,0.457,4.465,1.285,6.451H179.499z"/>
				<path fill="#FDD2A3" d="M143.368,376.268h-23.524c-0.503-6.064-5.576-10.832-11.77-10.832c-6.528,0-11.82,5.293-11.82,11.82
					c0,3.666,1.671,6.943,4.291,9.111c-2.62,2.168-4.291,5.445-4.291,9.111c0,6.527,5.292,11.82,11.82,11.82
					c6.193,0,11.266-4.766,11.77-10.83h23.524V376.268z"/>
				<g>
					<path fill="#F37721" d="M224.235,428.988l-80.078-27.193c-0.877-0.297-1.465-1.119-1.465-2.043v-23.906
						c0-1.191,0.966-2.158,2.158-2.158h88.518c15.688,0,28.404,12.717,28.404,28.404
						C261.771,421.547,242.657,435.242,224.235,428.988L224.235,428.988z"/>
				</g>
				<g>
					<path fill="#F16922" d="M246.323,417.412l-80.079-27.191c-0.875-0.297-1.464-1.119-1.464-2.043v-14.49h-19.93
						c-1.192,0-2.158,0.967-2.158,2.16v23.904c0,0.924,0.588,1.746,1.465,2.043l80.078,27.191
						c12.356,4.195,25.014-0.59,32.016-10.063C252.997,419.012,249.649,418.541,246.323,417.412z"/>
				</g>
			</g>
			<g>
				<path fill="#FAC60F" d="M422.963,475.602H127.087c-1.074,0-2.094-0.48-2.776-1.311l-15.662-19.033
					c-1.931-2.346-0.262-5.883,2.777-5.883h327.201c3.039,0,4.707,3.537,2.777,5.883l-15.664,19.033
					C425.057,475.121,424.039,475.602,422.963,475.602z"/>
			</g>
			<g>
				<path fill="#E6B721" d="M168.083,474.291l-15.661-19.033c-1.931-2.346-0.263-5.883,2.777-5.883h-43.774
					c-3.039,0-4.709,3.537-2.777,5.883l15.661,19.033c0.685,0.83,1.703,1.311,2.778,1.311h43.773
					C169.786,475.602,168.767,475.121,168.083,474.291z"/>
			</g>
			<path fill="#FFE4C1" d="M251.77,217.99h-30.533c-2.799,0-5.067,2.27-5.067,5.068c0,2.799,2.269,5.068,5.067,5.068h30.533
				c4.476,0,8.115,3.641,8.115,8.116c0,4.476-3.639,8.117-8.115,8.117h-38.166c-10.064,0-18.253,8.188-18.253,18.252
				c0,10.065,8.188,18.253,18.253,18.253h17.212c4.55,0,8.252,3.703,8.252,8.252v11.867c0,2.799,2.269,5.068,5.068,5.068
				c2.798,0,5.068-2.27,5.068-5.068v-11.867c0-10.139-8.25-18.389-18.389-18.389h-17.212c-4.476,0-8.116-3.641-8.116-8.116
				s3.641-8.116,8.116-8.116h38.166c10.064,0,18.251-8.188,18.251-18.252C270.021,226.178,261.834,217.99,251.77,217.99z"/>
			<g>
				<g>
					<path fill="#FDD2A3" d="M181.181,340.898c-2.799,0-5.068-2.268-5.068-5.066v-11.775c0-4.496-3.656-8.152-8.15-8.152h-17.08
						c-10.009,0-18.151-8.143-18.151-18.15c0-10.01,8.143-18.152,18.151-18.152h19.97c2.799,0,5.068,2.27,5.068,5.068
						s-2.27,5.068-5.068,5.068h-19.97c-4.42,0-8.015,3.596-8.015,8.016s3.595,8.016,8.015,8.016h17.08
						c10.083,0,18.286,8.203,18.286,18.287v11.775C186.249,338.631,183.98,340.898,181.181,340.898z"/>
				</g>
			</g>
		</g>
	</g>
	<g>
		<circle fill="#F37721" cx="298.826" cy="383.092" r="5.068"/>
	</g>
	<g>
		<circle fill="#F37721" cx="324.582" cy="394.926" r="5.068"/>
	</g>
	<g>
		<circle fill="#F37721" cx="339.898" cy="413.025" r="5.068"/>
	</g>
	<g>
		<circle fill="#F37721" cx="318.318" cy="370.563" r="5.068"/>
	</g>
	<g>
		<circle fill="#F37721" cx="300.914" cy="416.506" r="5.068"/>
	</g>
</g>
<g>
	<polygon fill="#D8D8D7" points="361.043,138.531 361.043,154.123 353.246,168.423 345.449,154.123 345.449,130.739 	"/>
	<g>
		<path fill="#DDDDDC" d="M361.043,154.123v50.684c0,4.304-3.492,7.796-7.797,7.796c-4.303,0-7.797-3.493-7.797-7.796v-50.684
			H361.043z"/>
		<path fill="#DDDDDC" d="M349.354,54.067c-6.459,0-11.695,5.236-11.695,11.695v61.074c0,6.459,5.236,11.695,11.695,11.695h11.695
			c0-33.759,0-72.768,0-72.768C361.049,59.304,355.813,54.067,349.354,54.067z"/>
	</g>
	<g>
		<path fill="#D8D8D7" d="M307.771,54.067c-2.152,0-3.898,1.746-3.898,3.898v39.502h7.797V57.966
			C311.67,55.813,309.924,54.067,307.771,54.067z"/>
		<path fill="#D8D8D7" d="M323.365,54.067c-2.152,0-3.898,1.746-3.898,3.898v39.502l7.797-16.373v-23.13
			C327.264,55.813,325.518,54.067,323.365,54.067z"/>
		<path fill="#D8D8D7" d="M292.178,54.067c-2.152,0-3.898,1.746-3.898,3.898v23.13l7.797,16.373V57.966
			C296.076,55.813,294.332,54.067,292.178,54.067z"/>
	</g>
	<path fill="#DDDDDC" d="M288.279,81.096v8.579c0,7.991,4.813,14.856,11.697,17.865v97.262c0,4.306,3.49,7.796,7.795,7.796
		s7.797-3.49,7.797-7.796V107.54c6.881-3.008,11.695-9.874,11.695-17.865v-8.579H288.279z"/>
	<path fill="#A01D23" d="M225.388,149.711l47.299,62.893h15.592C288.279,177.867,260.125,149.711,225.388,149.711z"/>
	<path fill="#F69D88" d="M225.388,54.067v80.045c22.104,0,40.02-17.917,40.02-40.023C265.408,71.984,247.493,54.067,225.388,54.067z
		"/>
	<path fill="#EE3F6D" d="M225.388,149.711c26.122,0,47.299,28.156,47.299,62.893H162.495
		C162.495,177.867,190.651,149.711,225.388,149.711z"/>
	<path fill="#FAC8BB" d="M225.388,54.067c13.492,0,24.429,17.917,24.429,40.022c0,22.106-10.937,40.023-24.429,40.023
		c-22.105,0-40.023-17.917-40.023-40.023C185.365,71.984,203.283,54.067,225.388,54.067z"/>
	<path fill="#F27657" d="M225.388,112.022c-5.489,0-10.411-3.474-12.25-8.646c-0.72-2.028,0.339-4.257,2.367-4.979
		c2.03-0.721,4.258,0.339,4.98,2.368c0.735,2.07,2.706,3.46,4.903,3.46c2.195,0,4.167-1.39,4.902-3.46
		c0.721-2.029,2.95-3.088,4.979-2.368c2.029,0.721,3.088,2.95,2.368,4.979C235.799,108.548,230.875,112.022,225.388,112.022z"/>
</g>
</svg>
